140,134,122,1
171,159,119,1
139,98,138,1
168,121,175,1
180,163,207,1
89,91,90,1
20,195,162,1
113,229,168,1
124,244,154,1
184,253,153,1
65,62,74,1
115,98,110,1
179,129,132,1
240,180,158,1
247,228,190,1
0,24,72,1
48,24,96,1
72,48,120,1
96,72,120,1
144,96,144,1
13,178,172,1
252,105,77,1
250,186,50,1
252,141,77,1
245,221,126,1
22,147,165,1
69,181,196,1
126,206,202,1
160,222,214,1
199,237,232,1
33,52,53,1
70,104,91,1
100,138,100,1
166,185,133,1
225,227,172,1
111,88,70,1
169,90,82,1
227,91,93,1
241,128,82,1
225,164,70,1
11,72,107,1
59,134,134,1
121,189,154,1
168,219,168,1
207,240,158,1
17,22,37,1
52,25,49,1
87,27,60,1
122,30,72,1
157,32,83,1
42,40,41,1
73,55,54,1
123,59,59,1
102,130,132,1
185,215,217,1
52,56,56,1
0,95,107,1
0,140,158,1
0,180,204,1
0,223,252,1